dj-database-url==0.5.0
django-cors-headers==3.1.1
django-extensions==2.2.1
django-oauth-toolkit==1.2.0
django==2.2.5
djangorestframework==3.10.3
drf-flex-fields==0.6.1
drf-nested-routers==0.91
gunicorn==19.9.0
meinheld==1.0.1
psycopg2==2.8.5
typing-extensions==3.7.4
